CPU_test.vcd
$date
	Tue Feb 28 16:23:58 2023
$end
$version
	Icarus Verilog
$end
$timescale
	1ps
$end
$scope module CPU_test $end
$var reg 1 ! EX_irq $end
$var reg 1 " clk $end
$var reg 1 # rst $end
$scope module CPU_10 $end
$var wire 1 $ CPSR_7 $end
$var wire 32 % CPSR_New [31:0] $end
$var wire 1 ! EX_irq $end
$var wire 4 & MASK [3:0] $end
$var wire 32 ' SP [31:0] $end
$var wire 32 ( SPSR_New [31:0] $end
$var wire 32 ) W_Data [31:0] $end
$var wire 1 * ckl $end
$var wire 1 " clk $end
$var wire 1 # rst $end
$var wire 5 + imm5 [4:0] $end
$var wire 24 , imm24 [23:0] $end
$var wire 12 - imm12 [11:0] $end
$var wire 1 . W_Addr_rt $end
$var wire 4 / W_Addr_rd [3:0] $end
$var wire 4 0 W_Addr [3:0] $end
$var wire 32 1 Shift_Out [31:0] $end
$var wire 8 2 Shift_Num [7:0] $end
$var wire 32 3 Shift_Data [31:0] $end
$var wire 32 4 Shift_Carry_Out [31:0] $end
$var wire 32 5 SP_tmp [31:0] $end
$var wire 32 6 SPSR_und [31:0] $end
$var wire 32 7 SPSR_svc [31:0] $end
$var wire 32 8 SPSR_mon [31:0] $end
$var wire 32 9 SPSR_irq [31:0] $end
$var wire 32 : SPSR_hyp [31:0] $end
$var wire 32 ; SPSR_fiq [31:0] $end
$var wire 32 < SPSR_abt [31:0] $end
$var wire 32 = R_Data_rs [31:0] $end
$var wire 32 > R_Data_rn [31:0] $end
$var wire 32 ? R_Data_rm [31:0] $end
$var wire 4 @ R_Addr_rs [3:0] $end
$var wire 4 A R_Addr_rn [3:0] $end
$var wire 4 B R_Addr_rm [3:0] $end
$var wire 32 C PSP [31:0] $end
$var wire 8 D PC [7:0] $end
$var wire 4 E OP_Code [3:0] $end
$var wire 4 F NZCV_temp [3:0] $end
$var wire 32 G MSP [31:0] $end
$var wire 1 H IR_Flag $end
$var wire 32 I IR [31:0] $end
$var wire 1 J INT_irq $end
$var wire 32 K CPSR [31:0] $end
$var wire 32 L ALU_Out [31:0] $end
$var wire 32 M ALU_B [31:0] $end
$var wire 32 N ALU_A [31:0] $end
$var reg 32 O A [31:0] $end
$var reg 1 P ALU_A_s $end
$var reg 1 Q ALU_B_s $end
$var reg 4 R ALU_OP [3:0] $end
$var reg 32 S B [31:0] $end
$var reg 32 T C [31:0] $end
$var reg 3 U Change_M [2:0] $end
$var reg 32 V F [31:0] $end
$var reg 1 W F_s $end
$var reg 1 X INTA_irq $end
$var reg 3 Y Instruction_Type [2:0] $end
$var reg 1 Z L_A $end
$var reg 1 [ L_B $end
$var reg 1 \ L_C $end
$var reg 1 ] L_F $end
$var reg 4 ^ NZCV [3:0] $end
$var reg 2 _ PC_s [1:0] $end
$var reg 1 ` S $end
$var reg 3 a SHIFT_OP [2:0] $end
$var reg 1 b SP_in $end
$var reg 1 c SP_out $end
$var reg 1 d Und_ins $end
$var reg 1 e W_Addr_s $end
$var reg 3 f W_CPSR_s [2:0] $end
$var reg 1 g W_SPSR_s $end
$var reg 1 h Write_CPSR $end
$var reg 1 i Write_IR $end
$var reg 1 j Write_PC $end
$var reg 1 k Write_Reg $end
$var reg 1 l Write_SPSR $end
$var reg 2 m rm_imm_s [1:0] $end
$var reg 3 n rs_imm_s [2:0] $end
$var reg 7 o st_cur [6:0] $end
$var reg 7 p st_next [6:0] $end
$var reg 3 q testflag [2:0] $end
$scope module ALU $end
$var wire 32 r A [32:1] $end
$var wire 4 s ALU_OP [4:1] $end
$var wire 32 t B [32:1] $end
$var wire 1 u CF $end
$var wire 1 v Shift_Carry_Out $end
$var wire 1 w VF $end
$var reg 32 x F [32:1] $end
$var reg 33 y F33 [33:1] $end
$var reg 4 z NZCV [4:1] $end
$upscope $end
$scope module IF $end
$var wire 8 { B [7:0] $end
$var wire 8 | F [7:0] $end
$var wire 4 } NZCV [3:0] $end
$var wire 2 ~ PC_s [1:0] $end
$var wire 1 i Write_IR $end
$var wire 1 j Write_PC $end
$var wire 1 " clk $end
$var wire 1 # rst $end
$var wire 32 !" Read_Data [31:0] $end
$var wire 8 "" PC_OUT [7:0] $end
$var reg 32 #" IR [31:0] $end
$var reg 1 H IR_Flag $end
$var reg 32 $" PC [31:0] $end
$var reg 2 %" PC_C_Flag [1:0] $end
$scope module ROM $end
$var wire 1 " clk $end
$var wire 8 &" raddr [7:0] $end
$var reg 32 '" rdata [31:0] $end
$upscope $end
$upscope $end
$scope module REG $end
$var wire 5 (" M [4:0] $end
$var wire 32 )" PC_New [31:0] $end
$var wire 4 *" R_Addr_A [3:0] $end
$var wire 4 +" R_Addr_B [3:0] $end
$var wire 4 ," R_Addr_C [3:0] $end
$var wire 4 -" W_Addr [3:0] $end
$var wire 32 ." W_Data [31:0] $end
$var wire 1 /" Write_PC $end
$var wire 1 k Write_Reg $end
$var wire 1 " clk $end
$var wire 1 # rst $end
$var wire 1 0" unclk $end
$var reg 32 1" R10_fiq [31:0] $end
$var reg 32 2" R11_fiq [31:0] $end
$var reg 32 3" R12_fiq [31:0] $end
$var reg 32 4" R13_abt [31:0] $end
$var reg 32 5" R13_fiq [31:0] $end
$var reg 32 6" R13_hyp [31:0] $end
$var reg 32 7" R13_irq [31:0] $end
$var reg 32 8" R13_mon [31:0] $end
$var reg 32 9" R13_svc [31:0] $end
$var reg 32 :" R13_und [31:0] $end
$var reg 32 ;" R14_abt [31:0] $end
$var reg 32 <" R14_fiq [31:0] $end
$var reg 32 =" R14_irq [31:0] $end
$var reg 32 >" R14_mon [31:0] $end
$var reg 32 ?" R14_svc [31:0] $end
$var reg 32 @" R14_und [31:0] $end
$var reg 32 A" R15 [31:0] $end
$var reg 32 B" R8_fiq [31:0] $end
$var reg 32 C" R9_fiq [31:0] $end
$var reg 32 D" R_Data_A [31:0] $end
$var reg 32 E" R_Data_B [31:0] $end
$var reg 32 F" R_Data_C [31:0] $end
$var integer 32 G" i [31:0] $end
$upscope $end
$scope module bs $end
$var wire 1 H" Carry_flag $end
$var wire 3 I" SHIFT_OP [3:1] $end
$var wire 32 J" Shift_Data [32:1] $end
$var wire 8 K" Shift_Num [8:1] $end
$var wire 32 L" RSR_out [32:1] $end
$var wire 32 M" LSL_out [32:1] $end
$var wire 32 N" LRL_out [32:1] $end
$var wire 32 O" ASR_out [32:1] $end
$var reg 1 P" Shift_Carry_Out $end
$var reg 32 Q" Shift_Out [32:1] $end
$scope module ASR $end
$var wire 3 R" SHIFT_OP [3:1] $end
$var wire 32 S" Shift_Data [32:1] $end
$var wire 8 T" Shift_Num [8:1] $end
$var reg 1 U" Shift_Carry_Out $end
$var reg 32 V" Shift_Out [32:1] $end
$upscope $end
$scope module LRL $end
$var wire 3 W" SHIFT_OP [3:1] $end
$var wire 32 X" Shift_Data [32:1] $end
$var wire 8 Y" Shift_Num [8:1] $end
$var reg 1 Z" Shift_Carry_Out $end
$var reg 32 [" Shift_Out [32:1] $end
$upscope $end
$scope module LSL $end
$var wire 3 \" SHIFT_OP [3:1] $end
$var wire 32 ]" Shift_Data [32:1] $end
$var wire 8 ^" Shift_Num [8:1] $end
$var reg 1 _" Shift_Carry_Out $end
$var reg 32 `" Shift_Out [32:1] $end
$upscope $end
$scope module ROR $end
$var wire 1 H" Carry_flag $end
$var wire 3 a" SHIFT_OP [3:1] $end
$var wire 32 b" Shift_Data [32:1] $end
$var wire 8 c" Shift_Num [8:1] $end
$var reg 1 d" Shift_Carry_Out $end
$var reg 32 e" Shift_Out [32:1] $end
$upscope $end
$upscope $end
$scope module module1 $end
$var wire 1 $ CPSR_7 $end
$var wire 1 ! EX_irq $end
$var wire 1 X INTA_irq $end
$var wire 1 " clk $end
$var wire 1 # rst $end
$var wire 1 J INT_irq $end
$scope module request $end
$var wire 1 $ CPSR_7 $end
$var wire 1 ! EX_irq $end
$var wire 1 X INTA_irq $end
$var wire 1 f" Q $end
$var wire 1 J INT_irq $end
$scope module D1 $end
$var wire 1 g" clk $end
$var wire 1 X clr $end
$var wire 1 h" d $end
$var reg 1 f" q $end
$upscope $end
$scope module D2 $end
$var wire 1 ! clk $end
$var wire 1 X clr $end
$var wire 1 f" d $end
$var reg 1 J q $end
$upscope $end
$upscope $end
$upscope $end
$scope module module2 $end
$var wire 32 i" CPSR_New [31:0] $end
$var wire 3 j" Change_M [2:0] $end
$var wire 4 k" MASK [3:0] $end
$var wire 4 l" NZCV [3:0] $end
$var wire 1 ` S $end
$var wire 32 m" SPSR_New [31:0] $end
$var wire 3 n" W_CPSR_s [2:0] $end
$var wire 1 g W_SPSR_s $end
$var wire 1 h Write_CPSR $end
$var wire 1 l Write_SPSR $end
$var wire 1 " clk $end
$var wire 32 o" new_SPSR [31:0] $end
$var wire 32 p" SPSR_und [31:0] $end
$var wire 32 q" SPSR_svc [31:0] $end
$var wire 32 r" SPSR_mon [31:0] $end
$var wire 32 s" SPSR_irq [31:0] $end
$var wire 32 t" SPSR_hyp [31:0] $end
$var wire 32 u" SPSR_fiq [31:0] $end
$var wire 32 v" SPSR_abt [31:0] $end
$var wire 32 w" CPSR [31:0] $end
$var reg 32 x" CPSR_in [31:0] $end
$var reg 32 y" Curr_SPSR [31:0] $end
$var reg 5 z" M [4:0] $end
$var reg 7 {" clk_m [6:0] $end
$scope module D_CPSR_15_8 $end
$var wire 1 |" clk $end
$var wire 1 }" clr $end
$var wire 8 ~" d [7:0] $end
$var reg 8 !# q [7:0] $end
$upscope $end
$scope module D_CPSR_23_16 $end
$var wire 1 "# clk $end
$var wire 1 ## clr $end
$var wire 8 $# d [7:0] $end
$var reg 8 %# q [7:0] $end
$upscope $end
$scope module D_CPSR_27_24 $end
$var wire 1 &# clk $end
$var wire 1 '# clr $end
$var wire 4 (# d [3:0] $end
$var reg 4 )# q [3:0] $end
$upscope $end
$scope module D_CPSR_31_28 $end
$var wire 1 *# clk $end
$var wire 1 +# clr $end
$var wire 4 ,# d [3:0] $end
$var reg 4 -# q [3:0] $end
$upscope $end
$scope module D_CPSR_7_0 $end
$var wire 1 .# clk $end
$var wire 1 /# clr $end
$var wire 8 0# d [7:0] $end
$var reg 8 1# q [7:0] $end
$upscope $end
$scope module D_SPSR_abt $end
$var wire 1 2# clk $end
$var wire 1 3# clr $end
$var wire 32 4# d [31:0] $end
$var reg 32 5# q [31:0] $end
$upscope $end
$scope module D_SPSR_fiq $end
$var wire 1 6# clk $end
$var wire 1 7# clr $end
$var wire 32 8# d [31:0] $end
$var reg 32 9# q [31:0] $end
$upscope $end
$scope module D_SPSR_hyp $end
$var wire 1 :# clk $end
$var wire 1 ;# clr $end
$var wire 32 <# d [31:0] $end
$var reg 32 =# q [31:0] $end
$upscope $end
$scope module D_SPSR_irq $end
$var wire 1 ># clk $end
$var wire 1 ?# clr $end
$var wire 32 @# d [31:0] $end
$var reg 32 A# q [31:0] $end
$upscope $end
$scope module D_SPSR_mon $end
$var wire 1 B# clk $end
$var wire 1 C# clr $end
$var wire 32 D# d [31:0] $end
$var reg 32 E# q [31:0] $end
$upscope $end
$scope module D_SPSR_svc $end
$var wire 1 F# clk $end
$var wire 1 G# clr $end
$var wire 32 H# d [31:0] $end
$var reg 32 I# q [31:0] $end
$upscope $end
$scope module D_SPSR_und $end
$var wire 1 J# clk $end
$var wire 1 K# clr $end
$var wire 32 L# d [31:0] $end
$var reg 32 M# q [31:0] $end
$upscope $end
$upscope $end
$scope module module3 $end
$var wire 5 N# M [4:0] $end
$var wire 32 O# SP [31:0] $end
$var wire 1 b SP_in $end
$var wire 1 c SP_out $end
$var wire 1 * clk $end
$var reg 32 P# MSP [31:0] $end
$var reg 32 Q# PSP [31:0] $end
$var reg 32 R# SP_tmp [31:0] $end
$upscope $end
$upscope $end
$upscope $end
$enddefinitions $end
#0
$dumpvars
bx R#
bx Q#
bx P#
bz O#
b10000 N#
bx M#
bx L#
zK#
xJ#
bx I#
bx H#
zG#
xF#
bx E#
bx D#
zC#
xB#
bx A#
bx @#
z?#
x>#
bx =#
bx <#
z;#
x:#
bx 9#
bx 8#
z7#
x6#
bx 5#
bx 4#
z3#
x2#
bx 1#
bx 0#
z/#
x.#
bx -#
bx ,#
z+#
x*#
bx )#
bx (#
z'#
x&#
bx %#
bx $#
z##
x"#
bx !#
bx ~"
z}"
x|"
bx {"
bx z"
bx y"
bx x"
bx w"
bx v"
bx u"
bx t"
bx s"
bx r"
bx q"
bx p"
bx o"
bx n"
bz m"
b0 l"
bz k"
bx j"
bz i"
1h"
1g"
1f"
bx e"
xd"
b0xxxxx c"
bx b"
b0 a"
bx `"
0_"
b0xxxxx ^"
bx ]"
b0 \"
bx ["
0Z"
b0xxxxx Y"
bx X"
b0 W"
bx V"
xU"
b0xxxxx T"
bx S"
b0 R"
bx Q"
0P"
bx O"
bx N"
bx M"
bx L"
b0xxxxx K"
bx J"
b0 I"
0H"
b10000 G"
bx F"
bx E"
bx D"
b0 C"
b0 B"
b0 A"
b0 @"
b0 ?"
b0 >"
b0 ="
b0 <"
b0 ;"
b0 :"
b0 9"
b0 8"
b0 7"
b0 6"
b0 5"
b0 4"
b0 3"
b0 2"
b0 1"
10"
z/"
bx ."
bx -"
bx ,"
bx +"
bx *"
bz )"
b10000 ("
bx '"
b0 &"
b0 %"
b0 $"
bx #"
b0 ""
bx !"
b0 ~
b0 }
bx |
bx {
bx000 z
bx y
bx x
0w
0v
0u
bx t
b0 s
bx r
bx q
b0 p
b111111 o
b0 n
b0 m
xl
0k
0j
0i
xh
xg
bx f
0e
xd
xc
xb
b0 a
x`
b0 _
b0 ^
0]
0\
0[
0Z
b0 Y
xX
0W
bx V
bx U
bx T
bx S
b0 R
0Q
0P
bx O
bx N
bx M
bx L
bx K
xJ
bx I
xH
bx G
bx000 F
bx E
b0 D
bx C
bx B
bx A
bx @
bx ?
bx >
bx =
bx <
bx ;
bx :
bx 9
bx 8
bx 7
bx 6
bx 5
b0 4
bx 3
b0xxxxx 2
bx 1
bx 0
bx /
x.
bx -
bx ,
bx +
z*
bx )
bz (
bz '
bz &
bz %
0$
1#
0"
0!
$end
#5000
1H
b11100011101000000001000011111111 !"
b11100011101000000001000011111111 '"
00"
1"
#9000
0#
#10000
10"
0"
#15000
b1 p
b0 o
0d
0b
1j
1i
00"
1"
#20000
bx0 L
bx0 x
bx0 M
bx0 t
bx0x0 F
bx0x0 z
bx0 1
bx0 Q"
xv
b0x 4
xP"
b0xxxxxxxxxxxxxxxxxxxxxxxxxxxxxxx N"
b0xxxxxxxxxxxxxxxxxxxxxxxxxxxxxxx ["
bx0 M"
bx0 `"
b0 =
b0 F"
b0 ?
b0 E"
b0 >
b0 D"
xZ"
x_"
b1 2
b1 K"
b1 T"
b1 Y"
b1 ^"
b1 c"
1.
b1 0
b1 -"
b100 D
b100 ""
b100 &"
b101000000001000011111111 ,
b1 +
b11111111 -
b1111 B
b1111 +"
b0 @
b0 ,"
b1 /
b0 A
b0 *"
b1101 E
b100 $"
b11100011101000000001000011111111 I
b11100011101000000001000011111111 #"
10"
0"
#25000
b0x0 F
b0x0 z
b0xxxxxxxx0 L
b0xxxxxxxx0 x
b111111110 M
b111111110 t
b111111110 1
b111111110 Q"
b0x 4
xP"
b1111111 O"
b1111111 V"
b1111111 N"
b1111111 ["
b111111110 M"
b111111110 `"
b10000000000000000000000001111111 L"
b10000000000000000000000001111111 e"
b0 2
b0 K"
b0 T"
b0 Y"
b0 ^"
b0 c"
0Z"
0U"
x_"
1d"
b11111111 3
b11111111 J"
b11111111 S"
b11111111 X"
b11111111 ]"
b11111111 b"
b10 p
b11101010111111111111111111111011 !"
b11101010111111111111111111111011 '"
b10 n
b1 m
1Z
0j
0i
b1 o
00"
1"
#30000
b1x0 F
b1x0 z
b0 L
b0 x
b0 N
b0 r
b0 O
10"
0"
#35000
b0x0 F
b0x0 z
b11111111 M
b11111111 t
b0x 4
xP"
b11111111 1
b11111111 Q"
b11111111 L
b11111111 x
b11 p
xZ"
b11111111 N"
b11111111 ["
xU"
b11111111 O"
b11111111 V"
xd"
b11111111 L"
b11111111 e"
b10 o
b111 a
b111 I"
b111 R"
b111 W"
b111 \"
b111 a"
0`
b1101 R
b1101 s
1]
00"
1"
#40000
b11111111 |
b11111111 )
b11111111 ."
b11111111 V
10"
0"
#45000
b11101 p
0]
0Z
1k
b11 o
00"
1"
#50000
10"
0"
#55000
b0 p
b11101 o
1]
1W
0k
00"
1"
#60000
b100 |
b100 )
b100 ."
b100 V
10"
0"
#65000
b1 p
0W
0]
1j
1i
b0 o
00"
1"
#70000
b1111101100 L
b1111101100 x
b1111101100 M
b1111101100 t
b0 F
b0 z
b1111101100 1
b1111101100 Q"
0v
b1000 p
b0 4
0P"
b0 O"
b0 V"
b0 N"
b0 ["
b11000000000000000000000000000000 M"
b11000000000000000000000000000000 `"
b1111101100 L"
b1111101100 e"
b10 Y
0U"
0Z"
0_"
0d"
b11111011 3
b11111011 J"
b11111011 S"
b11111011 X"
b11111011 ]"
b11111011 b"
b11110 2
b11110 K"
b11110 T"
b11110 Y"
b11110 ^"
b11110 c"
b1111 0
b1111 -"
b1000 D
b1000 ""
b1000 &"
b111111111111111111111011 ,
b11111 +
b111111111011 -
b1011 B
b1011 +"
b1111 @
b1111 ,"
b1111 /
b1111 A
b1111 *"
b111 E
b1000 $"
b11101010111111111111111111111011 I
b11101010111111111111111111111011 #"
10"
0"
#75000
b11111111111111111111110100 L
b11111111111111111111110100 x
b1001 p
b11111111111111111111101100 M
b11111111111111111111101100 t
b1000 N
b1000 r
b11100001101111101111000000000000 !"
b11100001101111101111000000000000 '"
b1000 o
b100 R
b100 s
1Q
1P
1]
0j
0i
00"
1"
#80000
b11110100 |
b11111111111111111111110100 )
b11111111111111111111110100 ."
b11111111111111111111110100 V
10"
0"
#85000
b1111101100 L
b1111101100 x
b1111101100 M
b1111101100 t
b0 N
b0 r
b11101 p
b10 _
b10 ~
0Q
0P
0]
1j
b1001 o
00"
1"
#90000
b11110100 D
b11110100 ""
b11110100 &"
b11110100 $"
10"
0"
#95000
b0 p
bx !"
bx '"
b11101 o
1]
1W
b0 _
b0 ~
0j
00"
1"
#100000
b11110100 )
b11110100 ."
b11110100 V
10"
0"
#105000
b1000 p
0W
0]
1j
1i
b0 o
00"
1"
#110000
bx0xx F
bx0xx z
bx L
bx x
bx M
bx t
bx 1
bx Q"
xv
b0x 4
xP"
bx N"
bx ["
bx O"
bx V"
bx M"
bx `"
bx L"
bx e"
bx =
bx F"
bx ?
bx E"
bx >
bx D"
b111 Y
xd"
b0xxxxxxxx 3
b0xxxxxxxx J"
b0xxxxxxxx S"
b0xxxxxxxx X"
b0xxxxxxxx ]"
b0xxxxxxxx b"
b0xxxx0 2
b0xxxx0 K"
b0xxxx0 T"
b0xxxx0 Y"
b0xxxx0 ^"
b0xxxx0 c"
x.
bx 0
bx -"
b11111000 D
b11111000 ""
b11111000 &"
bx ,
bx +
bx -
bx B
bx +"
bx @
bx ,"
bx /
bx A
bx *"
bx E
b11111000 $"
bx I
bx #"
10"
0"
#115000
b1001 p
b0xxxxxxxxxxxxxxxxxxxxxxxx00 M
b0xxxxxxxxxxxxxxxxxxxxxxxx00 t
b11111000 N
b11111000 r
b1000 o
1Q
1P
1]
0j
0i
00"
1"
#120000
bx |
bx )
bx ."
bx V
10"
0"
#125000
bx M
bx t
b0 N
b0 r
b11101 p
b10 _
b10 ~
0Q
0P
0]
1j
b1001 o
00"
1"
#130000
bx D
bx ""
bx &"
b0xxxxxxxx $"
10"
0"
#135000
b0 p
b11101 o
1]
1W
b0 _
b0 ~
0j
00"
1"
#140000
b0xxxxxxxx )
b0xxxxxxxx ."
b0xxxxxxxx V
10"
0"
#145000
0W
0]
1j
1i
b0 o
00"
1"
#150000
bx $"
10"
0"
